<?xml version="1.0" standalone="no"?>
<!DOCTYPE svg PUBLIC "-//W3C//DTD SVG 20010904//EN"
 "http://www.w3.org/TR/2001/REC-SVG-20010904/DTD/svg10.dtd">
<svg version="1.0" xmlns="http://www.w3.org/2000/svg"
 width="64.000000pt" height="64.000000pt" viewBox="0 0 64.000000 64.000000"
 preserveAspectRatio="xMidYMid meet">
<metadata>
Created by potrace 1.15, written by Peter Selinger 2001-2017
</metadata>
<g transform="translate(0.000000,64.000000) scale(0.100000,-0.100000)"
fill="#000000" stroke="none">
<path d="M432 557 c-45 -45 -82 -87 -82 -93 0 -6 13 -23 30 -39 29 -28 29 -28
12 -58 -19 -33 -130 -137 -146 -137 -5 0 -25 14 -43 32 l-33 32 -85 -84 c-47
-47 -85 -90 -85 -96 0 -6 24 -34 54 -63 50 -47 59 -51 103 -51 113 0 337 188
447 377 27 46 36 73 36 108 0 42 -5 51 -51 101 -29 30 -57 54 -63 54 -6 0 -48
-37 -94 -83z m148 -76 c0 -39 -90 -172 -170 -251 -79 -80 -212 -170 -251 -170
-15 0 -36 12 -52 28 l-27 28 45 44 45 44 29 -28 c28 -26 30 -27 58 -12 85 43
223 190 223 235 0 10 -11 28 -25 41 l-25 24 47 48 47 48 28 -27 c16 -16 28
-37 28 -52z"/>
</g>
</svg>
